ALA Labs: Sunburst plots for taxonomic data
…
Then, we can summarize this plot so that each row is a single taxon, recording some metadata about rows and columns from the original dataset

df_plot <- df_long |>
  group_by(taxon) |>
  summarize(
    xmin = min(row) - 1, 
    xmax = max(row), 
    ymin = level[1] - 1,
    ymax = level[1])
     
df_plot

# A tibble: 161 x 5
   taxon             xmin  xmax  ymin  ymax
   <chr>            <dbl> <int> <dbl> <int>
 1 Acanthopterygii     66    79     6     7
 2 Accipititrifomes    15    16     5     6
 3 Accipitriformes     21    22     4     5
 4 Actinopterygii      56    96     4     5
 5 Agnatha             10    12     2     3
 6 Albuliformes        62    63     6     7
 7 Amphibia            12    15     3     4
 8 Amphioxi             0     1     2     3
 9 Amphioxiformes       0     1     3     4
10 Anguilliformes      63    64     6     7
# ... with 151 more rows
…
