Modelling the Impact of the Black Summer (2019/20) Bush Fires on the Southern Greater Glider (Petauroides volans) Distribution in Southern NSW
…
<Training/Testing/Total>
<5886/1962/7848>

gliders_train <- training(gliders_split)
gliders_train

Simple feature collection with 5886 features and 7 fields
Geometry type: POINT
Dimension:     XY
Bounding box:  xmin: 148.5 ymin: -37.49949 xmax: 150.828 ymax: -35.00099
Geodetic CRS:  WGS 84
# A tibble: 5,886 × 8
   elevation  bio1 bio12 fire_extent treecover class     fire_period
       <dbl> <dbl> <dbl>       <int>     <dbl> <fct>           <dbl>
 1       899 12.3   739.           0     0     pseudoabs           1
 2      1141 10.8   779.           0    86.9   presence            1
 3      1310  9.45  775.           2    69.2   pseudoabs          -1
 4       958 11.0   772.           0    23.2   pseudoabs          -1
 5      1008 11.7   705.           0     0.124 pseudoabs           1
 6       821 12.1   651.           0     0.234 pseudoabs           1
 7       930 11.8   616.           0     0     pseudoabs           1
 8       755 13.3   675.           0     0     pseudoabs          -1
 9       703 12.6   902.           0    88.1   pseudoabs          -1
10       909 11.5   856.           0    78.8   presence            1
# ℹ 5,876 more rows
# ℹ 1 more variable: geometry <POINT [°]>

gliders_test <- testing(gliders_split)
gliders_test

Simple feature collection with 1962 features and 7 fields
Geometry type: POINT
Dimension:     XY
Bounding box:  xmin: 148.5 ymin: -37.49828 xmax: 150.8171 ymax: -35.00099
Geodetic CRS:  WGS 84
# A tibble: 1,962 × 8
   elevation  bio1 bio12 fire_extent treecover class    fire_period
       <dbl> <dbl> <dbl>       <int>     <dbl> <fct>          <dbl>
 1      1092  10.5  838.           0      76.7 presence           1
 2       937  10.9  947.           0      88.5 presence          -1
 3      1022  10.4  937.           0      90   presence          -1
 4      1000  10.4  926.           0      90   presence          -1
 5      1233  10.3  889.           0      76.5 presence          -1
 6        28  17.2  938.           4      64.9 presence          -1
 7      1075  11.0  866.           3      86.0 presence           1
 8       948  10.7 1023.           0      86.4 presence          -1
 9      1024  10.0 1108.           0      90   presence          -1
10      1090  11.0  792.           4      89.7 presence           1
# ℹ 1,952 more rows
# ℹ 1 more variable: geometry <POINT [°]>
…
